{
  "model": "StudyProgramReplacementResults",
  "title": "Transfer courses results",
  "searchExpression": "indexof(student/studentIdentifier, '${text}') ge 0 or indexof(student/person/familyName, '${text}') ge 0 or indexof(student/studyProgram/abbreviation, '${text}') ge 0 )",
  "selectable": false,
  "columns": [
    {
      "name": "student/id",
      "property": "student",
      "formatter": "ButtonFormatter",
      "formatString": "#/students/${student}/dashboard/courses",
      "className": "text-center",
      "formatOptions": {
        "buttonContent": "<i class=\"far fa-eye text-indigo\"></i>",
        "buttonClass": "btn btn-default"
      }
    },

    {
      "name": "student/studentIdentifier",
      "property": "studentIdentifier",
      "title": "Students.studentIdentifier"
    },
    {
      "name": "student/person/familyName",
      "property": "familyName",
      "title": "Students.fullName",
      "formatter": "TemplateFormatter",
      "formatString": "${familyName} ${givenName}"
    },
    {
      "name": "student/person/givenName",
      "property": "givenName",
      "title": "Students.GivenName",
      "hidden": true
    },
    {
      "name": "student/studyProgram/abbreviation",
      "property": "studyProgram",
      "title": "Students.studyProgram"
    },
    {
      "name": "student/semester",
      "property": "semester",
      "title": "Students.semester"
    },
    {
      "name": "student/inscriptionYear/alternateName",
      "property": "inscriptionYear",
      "title": "Students.inscriptionYear"
    },
    {
      "name": "student/inscriptionPeriod/alternateName",
      "property": "inscriptionPeriod",
      "title": "Students.inscriptionPeriod",
      "formatter": "TranslationFormatter",
      "formatString": "Periods.${value}"
    },
    {
      "name": "student/studentStatus/alternateName",
      "property": "studentStatus",
      "title": "Students.Status",
      "formatter": "TranslationFormatter",
      "formatString": "StudentStatuses.${value}"
    },
    {
      "name": "total",
      "property": "total",
      "title": "Departments.StudyProgramReplacementAction.Total"
    },
    {
      "name": "transferred",
      "property": "transferred",
      "title": "Departments.StudyProgramReplacementAction.Transferred"
    },
    {
      "name": "failed",
      "property": "failed",
      "title": "Departments.StudyProgramReplacementAction.Failed"
    },
    {
      "name": "message",
      "title": "Message",
      "hidden": true
    },
    {
      "name": "action/dateCreated",
      "property": "dateCreated",
      "title": "Departments.AutoRegisterClassesAction.StartDate",
      "formatter": "DateTimeFormatter",
      "formatString": "short"
    },
    {
      "name": "action/createdBy/alternateName",
      "property": "createdBy",
      "title": "Departments.AutoRegisterClassesAction.CreatedBy"
    },
    {
      "name": "action/actionStatus/alternateName",
      "property": "actionStatus",
      "title": "Departments.AutoRegisterClassesAction.RelatedActionStatus",
      "formatters": [
        {
          "formatter": "TranslationFormatter",
          "formatString": "Departments.AutoRegisterClassesAction.ActionStatusTypes.${value}"
        },
        {
          "formatter": "NgClassFormatter",
          "formatOptions": {
            "ngClass": {
              "text-danger": "'${actionStatus}'==='CancelledActionStatus' || '${actionStatus}'==='FailedActionStatus'",
              "text-primary": "'${actionStatus}'==='ActiveActionStatus' || '${actionStatus}'==='PotentialActionStatus'",
              "text-success": "'${actionStatus}'==='CompletedActionStatus'"
            }
          }
        }
      ]
    },
    {
      "name": "id",
      "property": "id",
      "title": "Departments.StudyProgramReplacementAction.ResultsShort",
      "className": "text-center",
      "formatters": [
        {
          "formatter": "ButtonFormatter",
          "formatString": "#/departments/current/transfer-courses/results/(modal:${id}/message)",
          "className": "text-center",
          "formatOptions": {
            "buttonTitle": "Departments.StudyProgramReplacementAction.ShowMessage",
            "buttonText": "Departments.StudyProgramReplacementAction.ShowMessage",
            "buttonClass": "btn btn-default text-theme"
          }
        },
        {
          "formatter": "NgClassFormatter",
          "formatOptions": {
            "ngClass": {
              "text-center": "${message !== ''}",
              "d-none": "${message === ''}"
            }
          }
        }
      ]
    }
  ],
  "defaults": {
    "filter": "(student/department eq ${currentDepartment})",
    "orderBy": "action/dateCreated desc"
  },
  "criteria": [
    {
      "name": "studyProgram",
      "filter": "(indexof(student/studyProgram/name, '${value}') ge 0 )",
      "type": "text"
    },
    {
      "name": "familyName",
      "filter": "(indexof(student/person/familyName, '${value}') ge 0)",
      "type": "text"
    },
    {
      "name": "studentStatus",
      "filter": "(student/studentStatus/alternateName eq '${value}')",
      "type": "text"
    },
    {
      "name": "inscriptionYear",
      "filter": "(student/inscriptionYear/name eq '${value}')",
      "type": "text"
    },
    {
      "name": "studentIdentifier",
      "filter": "(student/studentIdentifier eq '${value}')",
      "type": "text"
    },
    {
      "name": "result",
      "filter": "${value >= 1 ? '(result eq 1)' : '(result eq 0)'}",
      "type": "text"
    },
    {
      "name": "studentName",
      "filter": "(indexof(student/person/familyName, '${value}') ge 0 or indexof(student/person/givenName, '${value}') ge 0)",
      "type": "text"
    },
    {
      "name": "actionId",
      "filter": "(action/id eq '${value}')",
      "type": "text"
    },
    {
      "name": "ruleId",
      "filter": "(action/studyProgramReplacementRule/id eq ${value})",
      "type": "text"
    }
  ]
}
