{
  "title": "Theses.All",
  "model": "StudentTheses",
  "searchExpression": "(indexof(student/person/familyName, '${text}') ge 0 or indexof(student/person/givenName, '${text}') ge 0 or indexof(student/studentIdentifier, '${text}') ge 0 or indexof(thesis/name, '${text}') ge 0 or indexof(student/studyProgram/name, '${text}')  ge 0  or indexof(thesis/instructor/familyName, '${text}') ge 0)",
  "columns": [
    {
      "name": "id",
      "virtual": true,
      "property" : "id",
      "placeholder": "Theses.View",
      "formatter": "ButtonFormatter",
      "formatString": "#/theses/${id}",
      "className": "text-center",
      "formatOptions": {
        "buttonContent": "<i class=\"far fa-eye text-indigo\"></i>",
        "buttonClass": "btn btn-default"
      }
    },
    {
      "name": "thesis/id",
      "property": "id",
      "placeholder": "Theses.Actions",
      "formatter": "ActionLinkFormatter",
      "actions": [
        {
          "title": "Theses.Preview",
          "href": "#/theses/${id}/dashboard",
          "role": "preview"
        },
        {
          "title": "Theses.Edit",
          "href": "#/theses/${id}/edit",
          "role": "edit"
        },
        {
          "title": "Theses.Delete",
          "invoke": "deleteAction",
          "href": "#/theses/list/index",
          "role": "method",
          "click": ""
        }
      ],
      "sortable": false,
      "hidden": true
    },
    {
      "name": "student/id",
      "property": "studentId",
      "title": "Theses.StudentId",
      "hidden": true
    },
    {
      "name": "thesis/status/id",
      "property": "thesisStatus",
      "title": "Theses.ThesesId",
      "hidden": true
    },
    {
      "name": "thesis/instructor/id",
      "property": "instructorId",
      "hidden": true,
      "title": "Theses.InstructorId"
    },
    {
      "name": "thesis/name",
      "property": "title",
      "title": "Theses.ThesesName"
    },
    {
      "name": "thesis/type/name",
      "property": "thesisType",
      "title": "Theses.ThesesType"
    },
    {
      "name": "thesis/subject/name",
      "property": "thesisSubject",
      "title": "Theses.ThesisSubject"
    },
    {
      "name": "thesis/startYear/alternateName",
      "property": "startYear",
      "title": "Theses.StartYear"
    },
    {
      "name": "student/studyProgram/name",
      "property": "studyProgram",
      "title": "Students.studyProgram"
    },

    {
      "name": "thesis/startPeriod/alternateName",
      "property": "startPeriod",
      "title": "Theses.StartPeriod",
      "formatter": "TranslationFormatter",
      "formatString": "Periods.${value}"
    },
    {
      "name": "student/studentIdentifier",
      "property": "studentIdentifier",
      "title": "Theses.StudentIdentifier"
    },
    {
      "name": "student/person/givenName",
      "property": "givenName",
      "hidden": true,
      "title": "Theses.givenName"
    },
    {
      "name": "student/person/familyName",
      "property": "familyName",
      "title": "Theses.StudentFullName",
      "formatter": "TemplateFormatter",
      "formatString": "${familyName} ${givenName}"
    },
    {
      "name": "student/studentStatus/alternateName",
      "property": "studentStatus",
      "title": "Theses.StudentStatus",
      "formatters": [
        {
          "formatter": "TranslationFormatter",
          "formatString": "Theses.StudentStatuses.${value}"
        },
        {
          "formatter": "NgClassFormatter",
          "formatOptions": {
            "ngClass": {
              "text-danger": "'${studentStatus}'==='removed' || '${studentStatus}'==='suspended' || '${studentStatus}' === 'erased'",
              "text-theme": "'${studentStatus}'==='active' || '${studentStatus}'==='candidate'",
              "text-success": "'${studentStatus}'==='declared' || '${studentStatus}'==='graduated' "
            }
          }
        }
      ]
    },
    {
      "name": "thesis/instructor/givenName",
      "property": "instructorGivenName",
      "title": "Theses.InstructorGivenName",
      "hidden": true
    },
    {
      "name": "thesis/instructor/familyName",
      "property": "instructorFamilyName",
      "title": "Theses.InstructorFullName",
      "formatter": "TemplateFormatter",
      "formatString": "${instructorFamilyName} ${instructorGivenName}"
    },
    {
      "name": "members",
      "property": "members",
      "virtual": true,
      "sortable": false,
      "title": "Theses.Members",
      "formatters": [
        {
          "formatter": "TemplateFormatter",
          "formatString": "${thesis.members && thesis.members.length ? thesis.members.map(x => x.member && (x.member.familyName + ' ' + x.member.givenName)).join(', ') : '-'}"
        }
      ]
    },
    {
      "name": "thesis",
      "placeholder": "Theses.Thesis",
      "hidden": true,
      "formatters": [
        {
          "formatter": "NgClassFormatter",
          "formatOptions": {
            "ngClass": {
              "d-none": "1===1"
            }
          }
        }
      ]
    },
    {
      "name": "thesis/status/alternateName",
      "property": "statusName",
      "title": "Theses.Status",
      "formatters": [
        {
          "formatter": "TranslationFormatter",
          "formatString": "ThesisStatuses.${value}"
        },
        {
          "formatter": "NgClassFormatter",
          "formatOptions": {
            "ngClass": {
              "text-danger": "'${statusName}'==='cancelled'",
              "text-theme": "'${statusName}'==='potential' || '${statusName}'==='paused' || '${statusName}'==='active'",
              "text-success": "'${statusName}'==='completed'"
            }
          }
        }
      ]
    },
    {
      "name": "thesis/dateModified",
      "property": "dateModified",
      "title": "Theses.DateModified",
      "formatter": "DateTimeFormatter",
      "formatString": "short"
    },
    {
      "name": "thesis/coefficient",
      "property": "thesisCoefficient",
      "title": "Theses.Coefficient",
      "hidden": true,
      "optional": true
    },
    {
      "name": "thesis/department/id",
      "property": "thesisDepartmentId",
      "title": "Theses.DepartmentId",
      "hidden": true,
      "optional": true
    },
    {
      "name": "thesis/department/name",
      "property": "thesisDepartmentName",
      "title": "Theses.DepartmentName",
      "hidden": true,
      "optional": true
    },
    {
      "name": "thesis/department/abbreviation",
      "property": "thesisDepartmentAbbreviation",
      "title": "Theses.DepartmentAbbreviation",
      "hidden": true,
      "optional": true
    },
    {
      "name": "thesis/department/studyLevel/alternateName",
      "property": "thesisDepartmentStudyLevel",
      "title": "Theses.DepartmentStudyLevel",
      "formatter": "TranslationFormatter",
      "formatString": "StudyLevels.${value}",
      "hidden": true,
      "optional": true
    },
    {
      "name": "thesis/ects",
      "property": "thesisEcts",
      "title": "Theses.ECTS",
      "hidden": true,
      "optional": true
    },
    {
      "name": "thesis/instructor/email",
      "property": "thesisInstructorEmail",
      "title": "Theses.InstructorEmail",
      "hidden": true,
      "optional": true
    },
    {
      "name": "thesis/units",
      "property": "thesisUnits",
      "title": "Theses.Units",
      "hidden": true,
      "optional": true
    },
    {
      "name": "thesis/startDate",
      "property": "thesisStartDate",
      "title": "Theses.StartDate",
      "formatter": "DateTimeFormatter",
      "formatString": "shortDate",
      "hidden": true,
      "optional": true
    },
    {
      "name": "thesis/endDate",
      "property": "thesisEndDate",
      "title": "Theses.DeliveredDate",
      "formatter": "DateTimeFormatter",
      "formatString": "shortDate",
      "hidden": true,
      "optional": true
    },
    {
      "name": "thesis/examDate",
      "property": "thesisExamDate",
      "title": "Theses.ExamDate",
      "formatter": "DateTimeFormatter",
      "formatString": "short",
      "hidden": true,
      "optional": true
    }
  ],
  "defaults":{
    "filter": "(student/department eq ${currentDepartment})",
    "orderBy": "thesis/dateModified desc",
    "expand": "thesis($expand=members($expand=member))"
  },
  "criteria": [
    {
      "name": "thesisName",
      "filter": "(indexof(thesis/name, '${value}') ge 0)",
      "type": "text"
    },
    {
      "name": "studentName",
      "filter": "(indexof(student/person/familyName, '${value}') ge 0 or indexof(student/person/givenName, '${value}') ge 0)",
      "type": "text"
    },
    {
      "name": "studentIdentifier",
      "filter": "(student/studentIdentifier eq '${value}')",
      "type": "text"
    },
    {
      "name": "startYearId",
      "filter": "(thesis/startYear/id eq '${value}')",
      "type": "text"
    },
    {
      "name": "startPeriod",
      "filter": "(thesis/startPeriod/alternateName eq '${value}')",
      "type": "text"
    },
    {
      "name": "studyProgram",
      "filter": "(student/studyProgram/id eq '${value}')",
      "type": "text"
    },

    {
      "name": "instructorName",
      "filter": "(indexof(thesis/instructor/familyName, '${value}') ge 0 or indexof(thesis/instructor/givenName, '${value}') ge 0)",
      "type": "text"
    },
    {
      "name": "statusId",
      "filter": "(thesis/status/alternateName eq '${value}') ",
      "type": "text"
    },
    {
      "name": "studentStatus",
      "filter": "(indexof(student/studentStatus/alternateName, '${value}') ge 0)",
      "type": "text"
    },
    {
      "name": "thesisType",
      "filter": "(thesis/type/id eq '${value && value.id}')",
      "type": "text"
    },
    {
      "name": "subject",
      "filter": "(thesis/subject eq '${value}')",
      "type": "text"
    }
  ],
  "paths" : [
    {
      "name": "Theses.Active",
      "alternateName": "list/active",
      "show": true,
      "filter": {
        "status": "active"
      }
    },
    {
      "name": "Theses.All",
      "show": true,
      "alternateName": "list/index",
      "filter": {
      }
    },
    {
      "name": "Theses.Potential",
      "alternateName": "list/potential",
      "filter": {
        "status": "potential"
      }
    },
    {
      "name": "Theses.Paused",
      "alternateName": "list/paused",
      "filter": {
        "status": "paused"
      }
    },
    {
      "name": "Theses.Cancelled",
      "alternateName": "list/cancelled",
      "filter": {
        "status": "cancelled"
      }
    },
    {
      "name": "Theses.Current",
      "alternateName": "list/current",
      "filter": {
        "status": "cancelled"
      }
    },
    {
      "name": "Theses.Completed",
      "alternateName": "list/completed",
      "show": true,
      "filter": {}
    },
    {
      "name": "Theses.Unassigned",
      "alternateName": "list/unassigned",
      "filter": {}
    }
  ]
}
