{
    "model": "ThesisSubjects",
    "title": "Settings.EditItem",
    "settings": {
      "i18n": {
        "el": {
          "Set the name of this thesis subject":"Ορίστε την ονομασία του γνωστικού αντικειμένου εργασίας",
          "Set the department of this thesis subject": "Όρίστε το τμήμα του γνωστικού αντικειμένου εργασίας"
        }
      }
    },
    "components": [
      {
        "type": "fieldset",
        "components": [
          {
            "label": "HTML",
            "tag": "h5",
            "className": "font-weight-normal",
            "content": "{{form.subtitle}}",
            "refreshOnChange": false,
            "tableView": false,
            "key": "subtitle",
            "type": "htmlelement",
            "input": false
          },
          {
            "columns": [
              {
                "components": [
                  {
                    "label": "Name",
                    "labelPosition": "top",
                    "widget": {
                      "type": "input"
                    },
                    "validate": {
                      "required": true
                    },
                    "key": "name",
                    "type": "textfield",
                    "input": true,
                    "disabled": false,
                    "description": "Set the name of this thesis subject"
                  }
                ],
                "width": 6
              },
              {
                "components": [
                  {
                    "label": "Department",
                    "description": "Set the department of this thesis subject",
                    "labelPosition": "top",
                    "widget": "choicesjs",
                    "dataSrc": "url",
                    "data": {
                      "url": "LocalDepartments",
                      "headers": [
                      ]
                    },
                    "searchFields": [
                      "value.id",
                      "value.alternateName"
                    ],
                    "template": "<span class='d-block pr-5 text-truncate'>{{ item.name }}</span>",
                    "selectValues": "value",
                    "disabled": true,
                    "hidden": false,
                    "key": "department",
                    "valueProperty": "id",
                    "lazyLoad": false,
                    "type": "select",
                    "input": true,
                    "validate": {
                      "required": true
                    }
                  }
                ],
                "width": 6
              }
            ],
            "customClass": "text-dark",
            "hideLabel": true,
            "type": "columns",
            "input": false
          }
        ]
      },
      {
        "type": "button",
        "label": "Submit",
        "key": "submit",
        "disableOnInvalid": true,
        "input": true
      }
    ]
  }
  