{
  "components": [
    {
      "label": "Columns",
      "columns": [
        {
          "components": [
            {
              "label": "Courses.name",
              "spellcheck": true,
              "tableView": true,
              "validate": {
                "unique": false,
                "multiple": false
              },
              "key": "name",
              "type": "textfield",
              "input": true,
              "hideOnChildrenHidden": false
            }
          ],
          "width": 6,
          "offset": 0,
          "push": 0,
          "pull": 0
        },
        {
          "components": [
            {
              "label": "Courses.DisplayCode",
              "spellcheck": true,
              "tableView": true,
              "validate": {
                "unique": false,
                "multiple": false
              },
              "key": "displayCode",
              "type": "textfield",
              "input": true,
              "hideOnChildrenHidden": false
            }
          ],
          "width": 3,
          "offset": 0,
          "push": 0,
          "pull": 0
        },
        {
          "components": [
            {
              "label": "Courses.courseStructureType",
              "spellcheck": true,
              "tableView": true,
              "dataSrc": "url",
              "data": {
                "values": [],
                "url": "/CourseStructureTypes?$top=-1&$skip=0&$select=id,name",
                "headers": []
              },
              "validate": {
                "unique": false,
                "multiple": false
              },
              "template": "{{ item.name }}",
              "valueProperty": "id",
              "selectValues": "value",
              "key": "courseStructureType",
              "type": "select",
              "input": true,
              "hideOnChildrenHidden": false,
              "searchEnabled": false
            }
          ],
          "width": 3,
          "offset": 0,
          "push": 0,
          "pull": 0
        },
        {
          "components": [
            {
              "label": "Instructor",
              "widget": "choicesjs",
              "dataSrc": "url",
              "defaultValue": "",
              "labelPosition": "top",
              "data": {
                "values": [],
                "url": "/Instructors?$top={{limit}}&$skip={{skip}}&$select=id,familyName,givenName&$filter=indexof(familyName, '{{encodeURIComponent(search||'')}}') ge 0",
                "headers": []
              },
              "lazyLoad": true,
              "searchField": "search",
              "searchEnabled": true,
              "selectThreshold": 1,
              "limit": 20,
              "idPath": "id",
              "dataType": "object",
              "template": "{{ item.givenName }} {{ item.familyName }}",
              "key": "instructor",
              "type": "select",
              "selectValues": "value",
              "input": true
            }
          ],
          "width": 6,
          "offset": 0,
          "push": 0,
          "pull": 0
        },
        {
          "components": [
            {
              "label": "Knowledge Area",
              "widget": "choicesjs",
              "dataSrc": "url",
              "defaultValue": "",
              "labelPosition": "top",
              "data": {
                "values": [],
                "url": "/CourseAreas?$top=-1&$skip=0&$select=id,name&$filter=department eq '{{form.department}}'",
                "headers": []
              },
              "validate": {
                "required": false
              },
              "valueProperty": "id",
              "lazyLoad": false,
              "dataType": "string",
              "template": "{{ item.name }}",
              "selectThreshold": 0.3,
              "key": "courseArea",
              "type": "select",
              "selectValues": "value",
              "input": true
            }
          ],
          "width": 6
        },
        {
          "components": [
            {
              "label": "Courses.courseSector",
              "spellcheck": true,
              "tableView": true,
              "dataSrc": "url",
              "data": {
                "values": [],
                "url": "/CourseSectors?$top=-1&$skip=0&$select=id,name&$filter=department eq '{{form.department}}'",
                "headers": []
              },
              "dataType": "string",
              "validate": {
                "unique": false,
                "multiple": false
              },
              "template": "{{ item.name }}",
              "valueProperty": "id",
              "key": "courseSector",
              "selectValues": "value",
              "type": "select",
              "input": true,
              "hideOnChildrenHidden": false,
              "lazyLoad": false
            }
          ],
          "width": 6,
          "offset": 0,
          "push": 0,
          "pull": 0
        },
        {
          "components": [
            {
              "label": "Courses.courseCategory",
              "spellcheck": true,
              "tableView": true,
              "dataSrc": "url",
              "data": {
                "values": [],
                "url": "/CourseCategories?$top=-1&$skip=0&$select=id,name",
                "headers": []
              },
              "dataType": "string",
              "validate": {
                "unique": false,
                "multiple": false
              },
              "template": "{{ item.name }}",
              "valueProperty": "id",
              "key": "courseCategory",
              "selectValues": "value",
              "type": "select",
              "input": true,
              "hideOnChildrenHidden": false,
              "searchEnabled": false
            }
          ],
          "width": 3,
          "offset": 0,
          "push": 0,
          "pull": 0
        },
        {
          "components": [
            {
              "label": "Courses.IsEnabledLabel",
              "widget": "choicesjs",
              "data": {
                "values": [
                  {
                    "label": "Yes",
                    "value": "1"
                  },
                  {
                    "label": "No",
                    "value": "0"
                  }
                ]
              },
              "dataType": "string",
              "validate": {
                "unique": false,
                "multiple": false
              },
              "key": "isEnabled",
              "valueProperty": "value",
              "selectValues": "label",
              "type": "select",
              "input": true,
              "hideOnChildrenHidden": false,
              "disableLimit": false,
              "lazyLoad": false,
              "searchEnabled": false
            }
          ],
          "width": 3,
          "offset": 0,
          "push": 0,
          "pull": 0
        }
      ],
      "tableView": false,
      "key": "columns1",
      "type": "columns",
      "input": false,
      "path": "columns1"
    }
  ]
}
