{
    "$schema": "https://universis.gitlab.io/ngx-tables/schemas/v1/schema.json",
    "model": "DegreeTemplates",
    "selectable": true,
    "multipleSelect": true,
    "searchExpression":"(indexof(titleID, '${text}') ge 0 or indexof(title, '${text}') ge 0 or indexof(departmentCode, '${text}') ge 0 or indexof(studyProgramName, '${text}') ge 0 or indexof(publisherName, '${text}') ge 0)",
    "columns": [
        {
            "name": "titleID",
            "property": "titleID",
            "title": "Settings.Attributes.titleID",
            "hidden": false
        },
        {
            "name": "title",
            "title": "Settings.Attributes.title",
            "hidden": false
        },
        {
            "name": "studyProgramName",
            "title": "Settings.Attributes.studyProgramName",
            "hidden": false
        },
        {
            "name": "publisherName",
            "title": "Settings.Attributes.DegreeTemplate.publisherName",
            "hidden": false
        },
        {
            "name": "dateCreated",
            "title": "Settings.Attributes.dateCreated",
            "hidden": true,
            "formatter": "DateTimeFormatter",
            "formatString": "short"
        },
        {
            "name": "dateModified",
            "title": "Settings.Attributes.dateModified",
            "hidden": false,
            "formatter": "DateTimeFormatter",
            "formatString": "short"
        }
    ],
    "criteria": [
        {
            "name": "titleID",
            "filter": "(titleID eq '${value}')",
             "type": "text"
        },
        {
            "name": "title",
            "filter": "(indexof(title, '${value}') ge 0)",
             "type": "text"
        },
        {
            "name": "departmentCode",
            "filter": "(departmentCode eq '${value}')",
             "type": "text"
        },
        {
            "name": "publisherName",
            "filter": "(indexof(publisherName, '${value}') ge 0)",
             "type": "text"
        }
    ]
}