{
  "model": "ConsentFields",
  "settings": {
    "i18n": {
      "el": {
        "Set the name of this item":"Ορίστε την ονομασία του στοιχείου",
        "Set an alternate name for this item. This name will be used to identify items":"Ορίστε μία εναλλακτική ονομασία για αυτό το στοιχείο. Αυτό το όνομα θα χρησιμοποιηθεί για την ταυτοποίηση του στοιχείου",
        "This field must contain only latin characters or numbers e.g. active, closed etc. A value is required.": "Αυτό το πεδίο πρέπει να περιέχει μόνον λατινικούς χαρακτήρες ή αριθμούς πχ. active, closed κτλ. Το πεδίο είναι υποχρεωτικό.",
        "Write a short description for this item": "Ορίστε μία σύντομη περιγραφή για αυτό το στοιχείο",
        "Set an identifier that is going to be used either by an external system or by internal processes":"Ορίστε ένα κωδικό ταυτοποίησης ο οποίος πρόκειται να χρησιμοποιηθεί είτε από εξωτερικά συστήματα είτε από εσωτερικές διαδικασίες",
        "Set the value in this language": "Ορίστε την τιμή σε αυτή τη γλώσσα",
        "Additional Languages": "Πρόσθετες Γλώσσες",
        "Archived": "Αρχειοθετημένο",
        "Group": "Ομάδα",
        "An archived field is hidden in user consents forms": "Ένα αρχειοθετημένο πεδίο δεν είναι ορατό στις φόρμες συγκατάθεσης των χρηστών",
        "Expiration": "Λήξη",
        "1 week": "1 εβδομάδα",
        "2 weeks": "2 εβδομάδες",
        "1 month": "1 μήνας",
        "2 months": "2 μήνες",
        "3 months": "3 μήνες",
        "4 months": "4 μήνες",
        "5 months": "5 μήνες",
        "6 months": "6 μήνες",
        "9 months": "9 μήνες",
        "1 year": "1 χρόνος",
        "2 years": "2 χρόνια",
        "3 years": "3 χρόνια",
        "4 years": "4 χρόνια",
        "5 years": "5 χρόνια",
        "10 years": "10 χρόνια",
        "Set the expiration of this item. A user consent should be given again after expiration date.": "Ορίστε τη λήξη αυτού του στοιχείου. Η συγκατάθεση του χρήστη πρέπει να δοθεί ξανά μετά την ημερομηνία λήξης."
      }
    }
  },
  "components": [
    {
      "type": "fieldset",
      "components": [
        {
          "columns": [
            {
              "components": [
                {
                  "label": "Name",
                  "labelPosition": "top",
                  "widget": {
                    "type": "input"
                  },
                  "validate": {
                    "required": true
                  },
                  "key": "name",
                  "type": "textfield",
                  "input": true,
                  "disabled": false,
                  "description": "Set the name of this item"
                },
                {
                  "components": [
                    {
                      "label": "Group",
                      "labelPosition": "top",
                      "dataSrc": "url",
                      "data": {
                        "url": "ConsentFieldGroups?$orderby=name asc&$select=id,name,alternateName&$top=-1",
                        "headers": []
                      },
                      "template": "{{ item.name }}",
                      "key": "group",
                      "type": "select",
                      "dataType": "object",
                      "idPath": "alternateName",
                      "input": true,
                      "selectValues": "value",
                      "widget": "choicesjs",
                      "disabled": true,
                      "searchEnabled": true,
                      "validate": {
                        "required": true
                      },
                      "lazyLoad": true
                    }
                  ],
                  "width": 3,
                  "offset": 0,
                  "push": 0,
                  "pull": 0
                }
              ],
              "width": 6
            },
            {
              "components": [
                {
                  "label": "AlternateName",
                  "labelPosition": "top",
                  "widget": {
                    "type": "input"
                  },
                  "validate": {
                    "required": true,
                    "pattern": "^[a-zA-Z0-9_+-]+$",
                    "customMessage": "This field must contain only latin characters or numbers. A value is required."
                  },
                  "key": "alternateName",
                  "type": "textfield",
                  "input": true,
                  "description": "Set an alternate name for this item. This name will be used to identify items"
                },
                {
                  "label": "Expiration",
                  "widget": "choicesjs",
                  "description": "Set the expiration of this item. A user consent should be given again after expiration date.",
                  "tableView": true,
                  "data": {
                    "values": [
                      {
                        "label": "1 week",
                        "value": "P7D"
                      },
                      {
                        "label": "2 weeks",
                        "value": "P14D"
                      },
                      {
                        "label": "1 month",
                        "value": "P1M"
                      },
                      {
                        "label": "2 months",
                        "value": "P2M"
                      },
                      {
                        "label": "3 months",
                        "value": "P3M"
                      },
                      {
                        "label": "4 months",
                        "value": "P4M"
                      },
                      {
                        "label": "5 months",
                        "value": "P5M"
                      },
                      {
                        "label": "6 months",
                        "value": "P6M"
                      },
                      {
                        "label": "9 months",
                        "value": "P9M"
                      },
                      {
                        "label": "1 year",
                        "value": "P1Y"
                      },
                      {
                        "label": "2 years",
                        "value": "P2Y"
                      },
                      {
                        "label": "3 years",
                        "value": "P3Y"
                      },
                      {
                        "label": "4 years",
                        "value": "P4Y"
                      },
                      {
                        "label": "5 years",
                        "value": "P5Y"
                      },
                      {
                        "label": "10 years",
                        "value": "P10Y"
                      }
                    ]
                  },
                  "validate": {
                    "required": true
                  },
                  "key": "expiration",
                  "type": "select",
                  "input": true
                },
                {
                  "label": "Archived",
                  "description": "An archived field is hidden in user consents forms",
                  "tableView": false,
                  "key": "archived",
                  "type": "checkbox",
                  "input": true,
                  "defaultValue": false
                }
              ],
              "width": 6
            },
            {
              "components": [
                {
                  "label": "Description",
                  "labelPosition": "top",
                  "widget": {
                    "type": "input"
                  },
                  "validate": {
                    "required": false
                  },
                  "key": "description",
                  "type": "textarea",
                  "input": true,
                  "description": "Write a short description for this item"
                }
              ],
              "width": 12
            }
          ],
          "customClass": "text-dark",
          "hideLabel": true,
          "type": "columns",
          "input": false
        },
        {
          "components": [
            {
              "key": "fieldSet",
              "type": "fieldset",
              "input": false,
              "customClass": "mt-2 font-weight-normal",
              "components": [
                {
                  "label": "",
                  "hideLabel": true,
                  "key": "locales",
                  "type": "datagrid",
                  "disableAddingRemovingRows": true,
                  "input": true,
                  "customClass": "fix-panel-for-locales border-0 p-0",
                  "components": [
                    {
                      "collapsible": false,
                      "hideLabel": true,
                      "key": "panel",
                      "type": "panel",
                      "title": "",
                      "hideTitle": true,
                      "input": false,
                      "tableView": false,
                      "components": [
                        {
                          "content": "<div class=\"h4 font-weight-normal text-secondary pb-2\">{{instance.t('Additional Languages')}}</div>",
                          "refreshOnChange": false,
                          "key": "html",
                          "type": "htmlelement",
                          "input": false,
                          "tableView": false,
                          "customConditional": "show = row.inLanguage && row.inLanguage.length"
                        },
                        {
                          "content": "<div class=\"h5 font-weight-normal text-secondary border-bottom pb-3 border-gray-200 font-weight-normal\">{{instance.t(row.inLanguage)}}</div>",
                          "refreshOnChange": false,
                          "key": "html",
                          "type": "htmlelement",
                          "input": false,
                          "tableView": false,
                          "customConditional": "show = row.inLanguage && row.inLanguage.length"
                        },
                        {
                          "label": "Name",
                          "tableView": true,
                          "key": "name",
                          "validate": {
                            "required": true
                          },
                          "type": "textfield",
                          "input": true
                        },
                        {
                          "label": "Description",
                          "tableView": true,
                          "key": "description",
                          "validate": {
                            "required": false
                          },
                          "type": "textarea",
                          "input": true
                        }
                      ]
                    }
                  ]
                }
              ]
            }
          ],
          "width": 12
        }
      ]
    },
    {
      "type": "button",
      "label": "Submit",
      "key": "submit",
      "disableOnInvalid": true,
      "input": true
    }
  ]
}
