{
  "model": "AcademicCards",
  "title": "AcademicCard.AcademicCards.TitleSingular",
  "settings": {
    "i18n": {
      "el": {
        "European student identifier": "Ευρωπαϊκό αναγνωριστικό φοιτητή",
        "European student card number": "Αριθμός ευρωπαϊκής ακαδημαϊκής κάρτας",
        "National academic card number": "Αριθμός εθνικής ακαδημαϊκής κάρτας",
        "Active": "Ενεργή",
        "Expiry date": "Ημερομηνία λήξης",
        "Card type": "Τύπος κάρτας",
        "Serial number": "Σειριακός αριθμός"
      }
    }
  },
  "components": [
    {
      "type": "fieldset",
      "components": [
        {
          "columns": [
            {
              "components": [
                {
                  "label": "European student card number",
                  "labelPosition": "top",
                  "key": "escn",
                  "type": "textfield",
                  "input": false,
                  "disabled": true,
                  "hidden": false
                }
              ],
              "width": 5
            },
            {
              "components": [
                {
                  "label": "European student identifier",
                  "labelPosition": "top",
                  "key": "esi",
                  "type": "textfield",
                  "input": false,
                  "disabled": true,
                  "hidden": false
                }
              ],
              "width": 7
            },
            {
              "components": [
                {
                  "label": "National academic card number",
                  "labelPosition": "top",
                  "key": "nacn",
                  "type": "textfield",
                  "input": false,
                  "disabled": false,
                  "hidden": false
                }
              ],
              "width": 6
            },
            {
              "components": [
                {
                  "label": "Active",
                  "labelPosition": "top",
                  "widget": "choicesjs",
                  "searchEnabled": false,
                  "data": {
                    "values": [
                      {
                        "label": "Yes",
                        "value": "true"
                      },
                      {
                        "label": "No",
                        "value": "false"
                      }
                    ]
                  },
                  "validate": {
                    "required": true
                  },
                  "dataType": "string",
                  "type": "select",
                  "key": "isActive",
                  "input": true,
                  "disabled": false,
                  "hidden": false
                }
              ],
              "width": 6
            },
            {
              "components": [
                {
                  "label": "Expiry date",
                  "labelPosition": "top",
                  "format": "dd/MM/yyyy",
                  "enableTime": false,
                  "widget": {
                    "type": "calendar",
                    "format": "dd/MM/yyyy"
                  },
                  "key": "expiryDate",
                  "type": "datetime",
                  "input": true
                }
              ],
              "width": 6
            },
            {
              "components": [
                {
                  "label": "Card type",
                  "labelPosition": "top",
                  "key": "cardType",
                  "type": "textfield",
                  "input": true,
                  "disabled": false,
                  "hidden": false
                }
              ],
              "width": 6
            },
            {
              "components": [
                {
                  "label": "Serial number",
                  "labelPosition": "top",
                  "key": "cardUid",
                  "type": "textfield",
                  "input": true,
                  "disabled": false,
                  "hidden": false
                }
              ],
              "width": 6
            }
          ],
          "customClass": "text-dark",
          "hideLabel": true,
          "type": "columns",
          "input": false
        }
      ]
    },
    {
      "type": "button",
      "label": "Submit",
      "key": "submit",
      "disableOnInvalid": true,
      "input": true
    }
  ]
}
